Andrewsquarto
…
Andrewsquarto

11/30/22 Data

library(haven)
adae1 <- read_sas("https://github.com/elong0527/r4csr/raw/master/data-adam/adae.sas7bdat", 
    NULL)

adae1

# A tibble: 1,191 × 55
   STUDYID     SITEID USUBJID TRTA  TRTAN   AGE AGEGR1 AGEGR1N RACE  RACEN SEX  
   <chr>       <chr>  <chr>   <chr> <dbl> <dbl> <chr>    <dbl> <chr> <dbl> <chr>
 1 CDISCPILOT… 701    01-701… Plac…     0    63 <65          1 WHITE     1 F    
 2 CDISCPILOT… 701    01-701… Plac…     0    63 <65          1 WHITE     1 F    
 3 CDISCPILOT… 701    01-701… Plac…     0    63 <65          1 WHITE     1 F    
 4 CDISCPILOT… 701    01-701… Plac…     0    64 <65          1 WHITE     1 M    
 5 CDISCPILOT… 701    01-701… Plac…     0    64 <65          1 WHITE     1 M    
 6 CDISCPILOT… 701    01-701… Plac…     0    64 <65          1 WHITE     1 M    
 7 CDISCPILOT… 701    01-701… Plac…     0    64 <65          1 WHITE     1 M    
 8 CDISCPILOT… 701    01-701… Xano…    81    71 65-80        2 WHITE     1 M    
 9 CDISCPILOT… 701    01-701… Xano…    81    71 65-80        2 WHITE     1 M    
10 CDISCPILOT… 701    01-701… Xano…    81    77 65-80        2 WHITE     1 F    
# … with 1,181 more rows, and 44 more variables: SAFFL <chr>, TRTSDT <date>,
#   TRTEDT <date>, ASTDT <date>, ASTDTF <chr>, ASTDY <dbl>, AENDT <date>,
#   AENDY <dbl>, ADURN <dbl>, ADURU <chr>, AETERM <chr>, AELLT <chr>,
#   AELLTCD <dbl>, AEDECOD <chr>, AEPTCD <dbl>, AEHLT <chr>, AEHLTCD <dbl>,
#   AEHLGT <chr>, AEHLGTCD <dbl>, AEBODSYS <chr>, AESOC <chr>, AESOCCD <dbl>,
#   AESEV <chr>, AESER <chr>, AESCAN <chr>, AESCONG <chr>, AESDISAB <chr>,
#   AESDTH <chr>, AESHOSP <chr>, AESLIFE <chr>, AESOD <chr>, AEREL <chr>, …
…
